happyholiday\formater\FormatDestination.class
happyholiday\model\Restaurant.class
happyholiday\manager\RestaurantPicker.class
happyholiday\crud\CRUDLeisure.class
happyholiday\resources\AccommodationResources.class
happyholiday\validator\DestinationValidatorService.class
happyholiday\manager\SuggeratorService.class
happyholiday\validator\ProductValidatorService.class
happyholiday\crud\CRUDRestaurant.class
happyholiday\manager\LeisurePicker.class
happyholiday\model\City.class
happyholiday\server\Main.class
happyholiday\validator\ValidatorService.class
happyholiday\model\Accommodation.class
happyholiday\model\Suggestion.class
happyholiday\service\JPAUtility.class
happyholiday\resources\AddCitiesResources.class
happyholiday\crud\CRUDAccommodation.class
happyholiday\manager\CityPicker.class
happyholiday\validator\Validator.class
happyholiday\validator\DateValidatorService.class
happyholiday\crud\CRUDCity.class
happyholiday\resources\SuggestionResources.class
happyholiday\model\Leisure.class
happyholiday\formater\FormatDates.class
happyholiday\manager\AccommodationPicker.class
